<svg xmlns="http://www.w3.org/2000/svg" xmlns:xlink="http://www.w3.org/1999/xlink" width="66.6" height="66.491" viewBox="0 0 66.6 66.491">
  <defs>
    <clipPath id="clip-path">
      <rect id="Rectangle_115" data-name="Rectangle 115" width="66.6" height="66.491" fill="#0055b4"/>
    </clipPath>
  </defs>
  <g id="Group_506" data-name="Group 506" transform="translate(-767.606 -982.648)">
    <path id="Path_189" data-name="Path 189" d="M538.653,937,507.5,953.666V965.62L503.152,962h-5.434V949.319L529.6,932.292Z" transform="translate(282.403 56.34)" fill="#ffc400"/>
    <g id="Group_261" data-name="Group 261" transform="translate(767.606 982.648)">
      <g id="Group_260" data-name="Group 260" transform="translate(0)" clip-path="url(#clip-path)">
        <path id="Path_188" data-name="Path 188" d="M.01,33.21c0-5.229.009-10.457-.01-15.686A1.514,1.514,0,0,1,.961,16Q14.6,9.2,28.226,2.372C29.679,1.646,31.139.934,32.582.19a1.471,1.471,0,0,1,1.45,0q7.234,3.63,14.478,7.241,8.584,4.293,17.171,8.581a1.493,1.493,0,0,1,.918,1.508q-.02,15.734,0,31.468a1.528,1.528,0,0,1-.953,1.537Q49.918,58.374,34.208,66.257a1.864,1.864,0,0,1-1.845-.021Q16.6,58.332.825,50.462A1.378,1.378,0,0,1,0,49.087Q.021,41.149.01,33.21M34.449,63.5c.2-.08.336-.122.459-.184q14.465-7.23,28.932-14.454a.732.732,0,0,0,.458-.773q-.015-14.2-.008-28.407v-.587c-.206.087-.351.14-.488.208q-14.459,7.226-28.92,14.446a.693.693,0,0,0-.443.731q.016,14.227.009,28.455Zm-2.3.023v-.559q0-14.25.01-28.5a.7.7,0,0,0-.457-.726c-2.768-1.371-5.529-2.758-8.293-4.137-.121-.061-.255-.1-.44-.167v.629c0,3.268-.006,6.535.005,9.8a1.251,1.251,0,0,1-.757,1.352,1.227,1.227,0,0,1-1.4-.44c-1.246-1.256-2.491-2.513-3.759-3.746a1.207,1.207,0,0,0-.739-.308c-1.067-.034-2.136-.014-3.2-.014-1.278,0-1.625-.342-1.625-1.6,0-3.634-.009-7.269.012-10.9a.79.79,0,0,0-.524-.831c-2.23-1.094-4.448-2.212-6.671-3.322-.636-.317-1.272-.633-2-.993v.7q0,14.131-.009,28.262a.824.824,0,0,0,.525.875q13.912,6.93,27.807,13.892c.478.239.961.467,1.518.738M62.81,17.2c-.18-.111-.269-.174-.365-.223-3.033-1.519-6.064-3.042-9.108-4.538a.938.938,0,0,0-.737.05Q38.714,19.841,24.842,27.224c-.131.07-.256.152-.436.26.173.1.276.173.386.229,2.717,1.362,5.439,2.717,8.149,4.092a.83.83,0,0,0,.842-.068Q48.053,24.6,62.324,17.469c.138-.069.27-.15.486-.272M3.769,17.178c.263.145.4.225.538.3,2.619,1.31,5.242,2.612,7.854,3.936a.878.878,0,0,0,.924-.008c1.524-.831,3.059-1.641,4.592-2.455Q29.215,12.82,40.754,6.694c.144-.076.277-.173.481-.3-.278-.152-.465-.264-.66-.361-2.222-1.11-4.452-2.207-6.664-3.338a1.161,1.161,0,0,0-1.187-.008Q19.3,9.417,5.867,16.121c-.663.332-1.325.667-2.1,1.057m46.673-6.187c-.287-.155-.451-.249-.619-.333-1.851-.927-3.707-1.845-5.552-2.785a.85.85,0,0,0-.886.015c-2.708,1.452-5.425,2.889-8.138,4.331L17.615,21.59c-.782.416-1.563.835-2.428,1.3.248.137.408.234.574.317,1.865.933,3.735,1.854,5.591,2.8a.882.882,0,0,0,.924-.019q13.787-7.343,27.582-14.669c.163-.086.321-.18.584-.327M20.528,37.272l.144-.083v-.467c0-2.646-.009-5.292.009-7.937a.759.759,0,0,0-.484-.807c-1.989-.971-3.963-1.971-5.944-2.958-.132-.066-.273-.112-.431-.176v9.562c.875,0,1.722.06,2.557-.016a2.5,2.5,0,0,1,2.3.964c.574.676,1.23,1.281,1.85,1.917" transform="translate(0 0)" fill="#0055b4"/>
      </g>
    </g>
  </g>
</svg>
