<svg xmlns="http://www.w3.org/2000/svg" xmlns:xlink="http://www.w3.org/1999/xlink" width="77.92" height="70" viewBox="0 0 77.92 70">
  <defs>
    <clipPath id="clip-path">
      <rect id="Rectangle_114" data-name="Rectangle 114" width="77.921" height="61.443" fill="#0055b4"/>
    </clipPath>
    <clipPath id="clip-Ödeme_Güvencesi">
      <rect width="77.92" height="70"/>
    </clipPath>
  </defs>
  <g id="Ödeme_Güvencesi" data-name="Ödeme Güvencesi" clip-path="url(#clip-Ödeme_Güvencesi)">
    <rect width="77.92" height="70" fill="#fff"/>
    <g id="Group_258" data-name="Group 258" transform="translate(179.734 -1.722)">
      <g id="Group_503" data-name="Group 503" transform="translate(-264 6)">
        <path id="Path_187" data-name="Path 187" d="M503.44,931.309l25.722,16.053.73,16.053,8.391-5.473v-15.87l-27.728-15.141Z" transform="translate(-396.669 -914.063)" fill="#ffc400"/>
        <g id="Group_257" data-name="Group 257" transform="translate(84.266)">
          <g id="Group_256" data-name="Group 256" clip-path="url(#clip-path)">
            <path id="Path_184" data-name="Path 184" d="M5.856,40.808c-1.678-.968-3.2-1.837-4.707-2.716-1.534-.892-1.532-1.6.008-2.5,1.51-.883,3.026-1.755,4.733-2.744-1.528-.879-2.9-1.641-4.243-2.456C1.014,30,.067,29.843.061,28.869S.992,27.71,1.632,27.34Q24.954,13.855,48.281.379a2.136,2.136,0,0,1,2.426,0q12.977,7.5,25.988,14.944c1.643.943,1.635,1.654-.025,2.618-1.478.859-2.957,1.715-4.618,2.678,1.148.669,2.125,1.241,3.1,1.808.584.339,1.178.661,1.757,1.008,1.339.8,1.335,1.564-.025,2.363-1.539.9-3.089,1.787-4.809,2.78.6.37,1.058.668,1.53.943,1.109.645,2.23,1.269,3.336,1.92,1.291.76,1.3,1.548,0,2.307q-5.952,3.465-11.923,6.9-17.674,10.2-35.34,20.412a2.2,2.2,0,0,1-2.514-.021q-12.933-7.477-25.9-14.892c-.176-.1-.353-.2-.522-.311C-.23,45.186-.23,44.4.782,43.8c1.358-.817,2.744-1.6,4.118-2.387.258-.149.506-.316.957-.6M23.549,17.115c.473.289.748.467,1.033.63,7.989,4.591,15.969,9.2,23.979,13.748A2.174,2.174,0,0,1,49.8,33.672c-.028,4.018.015,8.036.037,12.054,0,.346.039.692.069,1.2,1.859-1.078,3.556-2.039,5.219-3.057a1.133,1.133,0,0,0,.363-.849c.006-4.457,0-8.914-.058-13.37a1.4,1.4,0,0,0-.583-1.02Q42.317,21.376,29.741,14.2a1.129,1.129,0,0,0-.915-.106c-1.713.937-3.394,1.932-5.277,3.02M46.609,32.84c-.94-.544-1.74-.963-2.491-1.455a1.23,1.23,0,0,0-1.476.009c-3.173,1.863-6.372,3.682-9.547,5.542a2.245,2.245,0,0,1-2.09.272,7,7,0,0,0-4.188-.175,2.151,2.151,0,0,1-1.438-.116c-3.593-2.012-7.154-4.083-10.726-6.132a1.228,1.228,0,0,1-.689-1.5,2.676,2.676,0,0,0-.071-1.377c-.442-1.32-.423-1.469.8-2.176q4.382-2.538,8.769-5.068c.269-.156.524-.337.91-.587-.833-.481-1.528-.828-2.161-1.265a1.336,1.336,0,0,0-1.641,0c-5.483,3.2-10.987,6.357-16.482,9.532-.243.14-.462.321-.756.527.227.158.355.262.5.344Q15.815,36.1,27.8,43a1.277,1.277,0,0,0,1.476-.122q6.131-3.559,12.275-7.095c1.631-.943,3.257-1.893,5.063-2.942M74.645,16.657c-.278-.191-.435-.316-.607-.415Q62.094,9.375,50.156,2.5a1.277,1.277,0,0,0-1.47.092q-7.975,4.624-15.962,9.227c-.422.244-.837.5-1.4.83.944.548,1.75.967,2.5,1.469a1.2,1.2,0,0,0,1.463-.008c3.232-1.9,6.472-3.785,9.748-5.6a2.608,2.608,0,0,1,1.773-.2,9.215,9.215,0,0,0,4.4.147,2.078,2.078,0,0,1,1.337.131c3.622,2.033,7.218,4.111,10.815,6.187a1.193,1.193,0,0,1,.616,1.448,2.863,2.863,0,0,0,.1,1.464c.389,1.148.332,1.429-.739,2.051-1.986,1.153-3.979,2.293-5.968,3.44-1.24.715-2.477,1.436-3.862,2.238.8.471,1.469.8,2.068,1.224a1.473,1.473,0,0,0,1.828.01c4.162-2.448,8.355-4.844,12.536-7.26,1.538-.889,3.071-1.785,4.691-2.727M3.217,36.842c.778.45,1.36.788,1.943,1.123Q16.36,44.4,27.577,50.806a1.766,1.766,0,0,0,1.444.151c6.05-3.434,12.068-6.923,18.085-10.414.237-.138.551-.414.558-.634.047-1.671.026-3.344.026-5.218-.615.346-1.048.585-1.476.832q-8.38,4.836-16.752,9.685A1.818,1.818,0,0,1,27.4,45.2Q18.11,39.822,8.776,34.511a1.423,1.423,0,0,0-1.08-.22c-1.458.762-2.866,1.618-4.478,2.55m.084,7.93a3.548,3.548,0,0,0,.388.321Q15.807,52.059,27.939,59a1.289,1.289,0,0,0,1.078-.042q9.057-5.176,18.076-10.419c.258-.15.583-.469.591-.718.053-1.643.027-3.288.027-5.126-.6.325-1.038.55-1.464.8Q37.913,48.3,29.59,53.13a2.032,2.032,0,0,1-2.327-.015Q18.022,47.745,8.729,42.47c-.287-.164-.756-.343-.985-.222-1.487.785-2.93,1.652-4.443,2.524M36.817,15.658a2.2,2.2,0,0,0,.312.329c4.588,2.647,9.173,5.3,13.781,7.91a1.316,1.316,0,0,0,1.084-.084c3.085-1.74,6.151-3.515,9.215-5.293a1.594,1.594,0,0,0-.006-2.561q-4.509-2.615-9.048-5.178a2.453,2.453,0,0,0-1.04-.144q-2.153-.1-4.307-.168a2.223,2.223,0,0,0-1.058.045c-2.962,1.673-5.9,3.389-8.934,5.145m4.348,14.163a3.989,3.989,0,0,0-.381-.325c-4.561-2.624-9.118-5.256-13.7-7.843a1.407,1.407,0,0,0-1.166.06c-3,1.684-5.973,3.417-8.953,5.136a1.575,1.575,0,0,0,.069,2.877c2.808,1.614,5.605,3.246,8.439,4.814a3.725,3.725,0,0,0,1.594.262,17.39,17.39,0,0,1,3.314.093,3.179,3.179,0,0,0,2.907-.515,5.858,5.858,0,0,1,.612-.356l7.266-4.2m33.551-5.208c-1.6-.918-2.955-1.731-4.351-2.475a1.2,1.2,0,0,0-.991.043q-5.63,3.2-11.221,6.459c-.233.136-.537.415-.543.635-.045,1.668-.025,3.338-.025,5.226l17.13-9.888m0,7.986c-1.61-.925-3.024-1.766-4.474-2.541a1.13,1.13,0,0,0-.907.115Q63.752,33.358,58.2,36.6c-.238.138-.563.4-.569.619-.047,1.67-.026,3.342-.026,5.258L74.715,32.6" transform="translate(0 -0.001)" fill="#0055b4"/>
            <path id="Path_185" data-name="Path 185" d="M238.282,70.589c.185.165.632.377.71.683a1.312,1.312,0,0,1-.265,1.151,48.131,48.131,0,0,1-4.371,2.522,1.32,1.32,0,0,1-1.168-.437,1.179,1.179,0,0,1,.091-1.15c1.5-.963,3.06-1.824,4.6-2.713a1.8,1.8,0,0,1,.4-.055" transform="translate(-185.839 -56.282)" fill="#0055b4"/>
            <path id="Path_186" data-name="Path 186" d="M125.761,136.626c-.181-.164-.623-.379-.693-.68a1.311,1.311,0,0,1,.282-1.142c1.586-1,3.214-1.951,4.882-2.813a.993.993,0,0,1,1.067,1.615c-1.638,1.044-3.344,1.981-5.032,2.946a2.112,2.112,0,0,1-.5.074" transform="translate(-99.698 -105.206)" fill="#0055b4"/>
          </g>
        </g>
      </g>
    </g>
  </g>
</svg>
